{
  "dependencies": {
    "mssql1": {
      "secretStore": "AzureAppSettings",
      "resourceId": "/subscriptions/[parameters('subscriptionId')]/resourcegroups/[parameters('resourceGroupName')]/providers/Microsoft.Sql/servers/serverdbapiproyectointegrador/databases/APIProyectoIntegrador_db",
      "type": "mssql.azure",
      "connectionId": "defaultConnection",
      "dynamicId": null
    }
  }
}